C:\Users\kusha\Downloads\telstra-b2-2023-main\telstra-b2-2023-main\spring-boot-demo\src\main\java\com\telstra\testdemo\EmployeeTest.java
C:\Users\kusha\Downloads\telstra-b2-2023-main\telstra-b2-2023-main\spring-boot-demo\src\main\java\com\telstra\springbootdemo\controller\EmployeeController.java
C:\Users\kusha\Downloads\telstra-b2-2023-main\telstra-b2-2023-main\spring-boot-demo\src\main\java\com\telstra\springbootdemo\SpringBootDemoApplication.java
C:\Users\kusha\Downloads\telstra-b2-2023-main\telstra-b2-2023-main\spring-boot-demo\src\main\java\com\telstra\springbootdemo\model\Employee.java
